Final Project
…
In terms of Generosity, it is Asia that leads the way with the highest value, followed by Western Europe and the rest can be seen in the bar plot. Similarly, there is a clear association between the region and generosity levels, given the different cultures and traditions in the regions of the world, this association is not surprising.

Again, we can see an association with the GDPperCap and the region, with Western Europe having the highest score and Africa the lowest. It can be noted too that the deviation is high in the ME/NA and Asian regions if we look at the Sd numbers and the length of the boxplots, while there is very little spread in Western EUrope with most countries having high GDPperCap.

The freedom score is mildly associated with the region, there is a long tail in the boxplots for the top 3 countries, and similarly there is a large spread of values in all the regions which implies that the countries of the same region have different levels of freedom.

The family score seems to have the weakest association with similar values in all regions, except for Africa having the lowest average again. Only the spread seems to differ in the regions (by the boxplot), with median values quite similar

The scores seem to follow a similar trend in all region, with Western Europe topping the score in all categories except for Family, with most countries in Western Europe having high scores as well. Africa, Central Europe and ME/NA have the lowest scores and lots of deviation from the median score, showing inequalities between different countries in the same region. Americas and Asia are in the upper middle.

TASK 2:

A table showing the happiness score for each country in every year

## # A tibble: 704 x 3
##    Country      Year Happiness
##    <chr>       <dbl>     <dbl>
##  1 Switzerland  2015      5.07
##  2 Iceland      2015      4.86
##  3 Denmark      2015      5.04
##  4 Norway       2015      5.06
##  5 Canada       2015      4.98
##  6 Finland      2015      4.79
##  7 Netherlands  2015      4.91
##  8 Sweden       2015      4.99
##  9 New Zealand  2015      5.02
## 10 Australia    2015      5.02
## # ... with 694 more rows
…
